State 0 conflicts: 1 shift/reduce
State 7 conflicts: 1 shift/reduce
State 55 conflicts: 1 shift/reduce
State 75 conflicts: 10 shift/reduce
State 76 conflicts: 10 shift/reduce
State 77 conflicts: 1 shift/reduce
State 80 conflicts: 1 shift/reduce
State 82 conflicts: 4 shift/reduce
State 93 conflicts: 1 shift/reduce
State 137 conflicts: 1 shift/reduce
State 139 conflicts: 1 shift/reduce


Grammar

    0 $accept: input $end

    1 input: nl start
    2      | start

    3 start: mainmenu_stmt stmt_list
    4      | stmt_list

    5 stmt_list: %empty
    6          | stmt_list common_stmt
    7          | stmt_list choice_stmt
    8          | stmt_list menu_stmt
    9          | stmt_list end
   10          | stmt_list T_WORD error T_EOL
   11          | stmt_list option_name error T_EOL
   12          | stmt_list error T_EOL

   13 option_name: T_DEPENDS
   14            | T_PROMPT
   15            | T_TYPE
   16            | T_SELECT
   17            | T_IMPLY
   18            | T_OPTIONAL
   19            | T_RANGE
   20            | T_DEFAULT
   21            | T_VISIBLE

   22 common_stmt: T_EOL
   23            | if_stmt
   24            | comment_stmt
   25            | config_stmt
   26            | menuconfig_stmt
   27            | source_stmt

   28 option_error: T_WORD error T_EOL
   29             | error T_EOL

   30 config_entry_start: T_CONFIG T_WORD T_EOL

   31 config_stmt: config_entry_start config_option_list

   32 menuconfig_entry_start: T_MENUCONFIG T_WORD T_EOL

   33 menuconfig_stmt: menuconfig_entry_start config_option_list

   34 config_option_list: %empty
   35                   | config_option_list config_option
   36                   | config_option_list symbol_option
   37                   | config_option_list depends
   38                   | config_option_list help
   39                   | config_option_list option_error
   40                   | config_option_list T_EOL

   41 config_option: T_TYPE prompt_stmt_opt T_EOL
   42              | T_PROMPT prompt if_expr T_EOL
   43              | T_DEFAULT expr if_expr T_EOL
   44              | T_SELECT T_WORD if_expr T_EOL
   45              | T_IMPLY T_WORD if_expr T_EOL
   46              | T_RANGE symbol symbol if_expr T_EOL

   47 symbol_option: T_OPTION symbol_option_list T_EOL

   48 symbol_option_list: %empty
   49                   | symbol_option_list T_WORD symbol_option_arg

   50 symbol_option_arg: %empty
   51                  | T_EQUAL prompt

   52 choice: T_CHOICE word_opt T_EOL

   53 choice_entry: choice choice_option_list

   54 choice_end: end

   55 choice_stmt: choice_entry choice_block choice_end

   56 choice_option_list: %empty
   57                   | choice_option_list choice_option
   58                   | choice_option_list depends
   59                   | choice_option_list help
   60                   | choice_option_list T_EOL
   61                   | choice_option_list option_error

   62 choice_option: T_PROMPT prompt if_expr T_EOL
   63              | T_TYPE prompt_stmt_opt T_EOL
   64              | T_OPTIONAL T_EOL
   65              | T_DEFAULT T_WORD if_expr T_EOL

   66 choice_block: %empty
   67             | choice_block common_stmt

   68 if_entry: T_IF expr nl

   69 if_end: end

   70 if_stmt: if_entry if_block if_end

   71 if_block: %empty
   72         | if_block common_stmt
   73         | if_block menu_stmt
   74         | if_block choice_stmt

   75 mainmenu_stmt: T_MAINMENU prompt nl

   76 menu: T_MENU prompt T_EOL

   77 menu_entry: menu visibility_list depends_list

   78 menu_end: end

   79 menu_stmt: menu_entry menu_block menu_end

   80 menu_block: %empty
   81           | menu_block common_stmt
   82           | menu_block menu_stmt
   83           | menu_block choice_stmt

   84 source_stmt: T_SOURCE prompt T_EOL

   85 comment: T_COMMENT prompt T_EOL

   86 comment_stmt: comment depends_list

   87 help_start: T_HELP T_EOL

   88 help: help_start T_HELPTEXT

   89 depends_list: %empty
   90             | depends_list depends
   91             | depends_list T_EOL
   92             | depends_list option_error

   93 depends: T_DEPENDS T_ON expr T_EOL

   94 visibility_list: %empty
   95                | visibility_list visible
   96                | visibility_list T_EOL

   97 visible: T_VISIBLE if_expr

   98 prompt_stmt_opt: %empty
   99                | prompt if_expr

  100 prompt: T_WORD
  101       | T_WORD_QUOTE

  102 end: T_ENDMENU T_EOL
  103    | T_ENDCHOICE T_EOL
  104    | T_ENDIF T_EOL

  105 nl: T_EOL
  106   | nl T_EOL

  107 if_expr: %empty
  108        | T_IF expr

  109 expr: symbol
  110     | symbol T_LESS symbol
  111     | symbol T_LESS_EQUAL symbol
  112     | symbol T_GREATER symbol
  113     | symbol T_GREATER_EQUAL symbol
  114     | symbol T_EQUAL symbol
  115     | symbol T_UNEQUAL symbol
  116     | T_OPEN_PAREN expr T_CLOSE_PAREN
  117     | T_NOT expr
  118     | expr T_OR expr
  119     | expr T_AND expr

  120 symbol: T_WORD
  121       | T_WORD_QUOTE

  122 word_opt: %empty
  123         | T_WORD


Terminals, with rules where they appear

    $end (0) 0
    error (256) 10 11 12 28 29
    T_MAINMENU <id> (258) 75
    T_MENU <id> (259) 76
    T_ENDMENU <id> (260) 102
    T_SOURCE <id> (261) 84
    T_CHOICE <id> (262) 52
    T_ENDCHOICE <id> (263) 103
    T_COMMENT <id> (264) 85
    T_CONFIG <id> (265) 30
    T_MENUCONFIG <id> (266) 32
    T_HELP <id> (267) 87
    T_HELPTEXT <string> (268) 88
    T_IF <id> (269) 68 108
    T_ENDIF <id> (270) 104
    T_DEPENDS <id> (271) 13 93
    T_OPTIONAL <id> (272) 18 64
    T_PROMPT <id> (273) 14 42 62
    T_TYPE <id> (274) 15 41 63
    T_DEFAULT <id> (275) 20 43 65
    T_SELECT <id> (276) 16 44
    T_IMPLY <id> (277) 17 45
    T_RANGE <id> (278) 19 46
    T_VISIBLE <id> (279) 21 97
    T_OPTION <id> (280) 47
    T_ON <id> (281) 93
    T_WORD <string> (282) 10 28 30 32 44 45 49 65 100 120 123
    T_WORD_QUOTE <string> (283) 101 121
    T_UNEQUAL (284) 115
    T_LESS (285) 110
    T_LESS_EQUAL (286) 111
    T_GREATER (287) 112
    T_GREATER_EQUAL (288) 113
    T_CLOSE_PAREN (289) 116
    T_OPEN_PAREN (290) 116
    T_EOL (291) 10 11 12 22 28 29 30 32 40 41 42 43 44 45 46 47 52 60 62 63 64 65 76 84 85 87 91 93 96 102 103 104 105 106
    T_OR (292) 118
    T_AND (293) 119
    T_EQUAL (294) 51 114
    T_NOT (295) 117


Nonterminals, with rules where they appear

    $accept (41)
        on left: 0
    input (42)
        on left: 1 2
        on right: 0
    start (43)
        on left: 3 4
        on right: 1 2
    stmt_list (44)
        on left: 5 6 7 8 9 10 11 12
        on right: 3 4 6 7 8 9 10 11 12
    option_name <id> (45)
        on left: 13 14 15 16 17 18 19 20 21
        on right: 11
    common_stmt (46)
        on left: 22 23 24 25 26 27
        on right: 6 67 72 81
    option_error (47)
        on left: 28 29
        on right: 39 61 92
    config_entry_start (48)
        on left: 30
        on right: 31
    config_stmt (49)
        on left: 31
        on right: 25
    menuconfig_entry_start (50)
        on left: 32
        on right: 33
    menuconfig_stmt (51)
        on left: 33
        on right: 26
    config_option_list (52)
        on left: 34 35 36 37 38 39 40
        on right: 31 33 35 36 37 38 39 40
    config_option (53)
        on left: 41 42 43 44 45 46
        on right: 35
    symbol_option (54)
        on left: 47
        on right: 36
    symbol_option_list (55)
        on left: 48 49
        on right: 47 49
    symbol_option_arg <string> (56)
        on left: 50 51
        on right: 49
    choice (57)
        on left: 52
        on right: 53
    choice_entry <menu> (58)
        on left: 53
        on right: 55
    choice_end (59)
        on left: 54
        on right: 55
    choice_stmt (60)
        on left: 55
        on right: 7 74 83
    choice_option_list (61)
        on left: 56 57 58 59 60 61
        on right: 53 57 58 59 60 61
    choice_option (62)
        on left: 62 63 64 65
        on right: 57
    choice_block (63)
        on left: 66 67
        on right: 55 67
    if_entry <menu> (64)
        on left: 68
        on right: 70
    if_end (65)
        on left: 69
        on right: 70
    if_stmt (66)
        on left: 70
        on right: 23
    if_block (67)
        on left: 71 72 73 74
        on right: 70 72 73 74
    mainmenu_stmt (68)
        on left: 75
        on right: 3
    menu (69)
        on left: 76
        on right: 77
    menu_entry <menu> (70)
        on left: 77
        on right: 79
    menu_end (71)
        on left: 78
        on right: 79
    menu_stmt (72)
        on left: 79
        on right: 8 73 82
    menu_block (73)
        on left: 80 81 82 83
        on right: 79 81 82 83
    source_stmt (74)
        on left: 84
        on right: 27
    comment (75)
        on left: 85
        on right: 86
    comment_stmt (76)
        on left: 86
        on right: 24
    help_start (77)
        on left: 87
        on right: 88
    help (78)
        on left: 88
        on right: 38 59
    depends_list (79)
        on left: 89 90 91 92
        on right: 77 86 90 91 92
    depends (80)
        on left: 93
        on right: 37 58 90
    visibility_list (81)
        on left: 94 95 96
        on right: 77 95 96
    visible (82)
        on left: 97
        on right: 95
    prompt_stmt_opt (83)
        on left: 98 99
        on right: 41 63
    prompt <string> (84)
        on left: 100 101
        on right: 42 51 62 75 76 84 85 99
    end <id> (85)
        on left: 102 103 104
        on right: 9 54 69 78
    nl (86)
        on left: 105 106
        on right: 1 68 75 106
    if_expr <expr> (87)
        on left: 107 108
        on right: 42 43 44 45 46 62 65 97 99
    expr <expr> (88)
        on left: 109 110 111 112 113 114 115 116 117 118 119
        on right: 43 68 93 108 116 117 118 119
    symbol <symbol> (89)
        on left: 120 121
        on right: 46 109 110 111 112 113 114 115
    word_opt <string> (90)
        on left: 122 123
        on right: 52


State 0

    0 $accept: . input $end

    T_MAINMENU  shift, and go to state 1
    T_EOL       shift, and go to state 2

    T_EOL     [reduce using rule 5 (stmt_list)]
    $default  reduce using rule 5 (stmt_list)

    input          go to state 3
    start          go to state 4
    stmt_list      go to state 5
    mainmenu_stmt  go to state 6
    nl             go to state 7


State 1

   75 mainmenu_stmt: T_MAINMENU . prompt nl

    T_WORD        shift, and go to state 8
    T_WORD_QUOTE  shift, and go to state 9

    prompt  go to state 10


State 2

  105 nl: T_EOL .

    $default  reduce using rule 105 (nl)


State 3

    0 $accept: input . $end

    $end  shift, and go to state 11


State 4

    2 input: start .

    $default  reduce using rule 2 (input)


State 5

    4 start: stmt_list .
    6 stmt_list: stmt_list . common_stmt
    7          | stmt_list . choice_stmt
    8          | stmt_list . menu_stmt
    9          | stmt_list . end
   10          | stmt_list . T_WORD error T_EOL
   11          | stmt_list . option_name error T_EOL
   12          | stmt_list . error T_EOL

    error         shift, and go to state 12
    T_MENU        shift, and go to state 13
    T_ENDMENU     shift, and go to state 14
    T_SOURCE      shift, and go to state 15
    T_CHOICE      shift, and go to state 16
    T_ENDCHOICE   shift, and go to state 17
    T_COMMENT     shift, and go to state 18
    T_CONFIG      shift, and go to state 19
    T_MENUCONFIG  shift, and go to state 20
    T_IF          shift, and go to state 21
    T_ENDIF       shift, and go to state 22
    T_DEPENDS     shift, and go to state 23
    T_OPTIONAL    shift, and go to state 24
    T_PROMPT      shift, and go to state 25
    T_TYPE        shift, and go to state 26
    T_DEFAULT     shift, and go to state 27
    T_SELECT      shift, and go to state 28
    T_IMPLY       shift, and go to state 29
    T_RANGE       shift, and go to state 30
    T_VISIBLE     shift, and go to state 31
    T_WORD        shift, and go to state 32
    T_EOL         shift, and go to state 33

    $end  reduce using rule 4 (start)

    option_name             go to state 34
    common_stmt             go to state 35
    config_entry_start      go to state 36
    config_stmt             go to state 37
    menuconfig_entry_start  go to state 38
    menuconfig_stmt         go to state 39
    choice                  go to state 40
    choice_entry            go to state 41
    choice_stmt             go to state 42
    if_entry                go to state 43
    if_stmt                 go to state 44
    menu                    go to state 45
    menu_entry              go to state 46
    menu_stmt               go to state 47
    source_stmt             go to state 48
    comment                 go to state 49
    comment_stmt            go to state 50
    end                     go to state 51


State 6

    3 start: mainmenu_stmt . stmt_list

    $default  reduce using rule 5 (stmt_list)

    stmt_list  go to state 52


State 7

    1 input: nl . start
  106 nl: nl . T_EOL

    T_MAINMENU  shift, and go to state 1
    T_EOL       shift, and go to state 53

    T_EOL     [reduce using rule 5 (stmt_list)]
    $default  reduce using rule 5 (stmt_list)

    start          go to state 54
    stmt_list      go to state 5
    mainmenu_stmt  go to state 6


State 8

  100 prompt: T_WORD .

    $default  reduce using rule 100 (prompt)


State 9

  101 prompt: T_WORD_QUOTE .

    $default  reduce using rule 101 (prompt)


State 10

   75 mainmenu_stmt: T_MAINMENU prompt . nl

    T_EOL  shift, and go to state 2

    nl  go to state 55


State 11

    0 $accept: input $end .

    $default  accept


State 12

   12 stmt_list: stmt_list error . T_EOL

    T_EOL  shift, and go to state 56


State 13

   76 menu: T_MENU . prompt T_EOL

    T_WORD        shift, and go to state 8
    T_WORD_QUOTE  shift, and go to state 9

    prompt  go to state 57


State 14

  102 end: T_ENDMENU . T_EOL

    T_EOL  shift, and go to state 58


State 15

   84 source_stmt: T_SOURCE . prompt T_EOL

    T_WORD        shift, and go to state 8
    T_WORD_QUOTE  shift, and go to state 9

    prompt  go to state 59


State 16

   52 choice: T_CHOICE . word_opt T_EOL

    T_WORD  shift, and go to state 60

    $default  reduce using rule 122 (word_opt)

    word_opt  go to state 61


State 17

  103 end: T_ENDCHOICE . T_EOL

    T_EOL  shift, and go to state 62


State 18

   85 comment: T_COMMENT . prompt T_EOL

    T_WORD        shift, and go to state 8
    T_WORD_QUOTE  shift, and go to state 9

    prompt  go to state 63


State 19

   30 config_entry_start: T_CONFIG . T_WORD T_EOL

    T_WORD  shift, and go to state 64


State 20

   32 menuconfig_entry_start: T_MENUCONFIG . T_WORD T_EOL

    T_WORD  shift, and go to state 65


State 21

   68 if_entry: T_IF . expr nl

    T_WORD        shift, and go to state 66
    T_WORD_QUOTE  shift, and go to state 67
    T_OPEN_PAREN  shift, and go to state 68
    T_NOT         shift, and go to state 69

    expr    go to state 70
    symbol  go to state 71


State 22

  104 end: T_ENDIF . T_EOL

    T_EOL  shift, and go to state 72


State 23

   13 option_name: T_DEPENDS .

    $default  reduce using rule 13 (option_name)


State 24

   18 option_name: T_OPTIONAL .

    $default  reduce using rule 18 (option_name)


State 25

   14 option_name: T_PROMPT .

    $default  reduce using rule 14 (option_name)


State 26

   15 option_name: T_TYPE .

    $default  reduce using rule 15 (option_name)


State 27

   20 option_name: T_DEFAULT .

    $default  reduce using rule 20 (option_name)


State 28

   16 option_name: T_SELECT .

    $default  reduce using rule 16 (option_name)


State 29

   17 option_name: T_IMPLY .

    $default  reduce using rule 17 (option_name)


State 30

   19 option_name: T_RANGE .

    $default  reduce using rule 19 (option_name)


State 31

   21 option_name: T_VISIBLE .

    $default  reduce using rule 21 (option_name)


State 32

   10 stmt_list: stmt_list T_WORD . error T_EOL

    error  shift, and go to state 73


State 33

   22 common_stmt: T_EOL .

    $default  reduce using rule 22 (common_stmt)


State 34

   11 stmt_list: stmt_list option_name . error T_EOL

    error  shift, and go to state 74


State 35

    6 stmt_list: stmt_list common_stmt .

    $default  reduce using rule 6 (stmt_list)


State 36

   31 config_stmt: config_entry_start . config_option_list

    $default  reduce using rule 34 (config_option_list)

    config_option_list  go to state 75


State 37

   25 common_stmt: config_stmt .

    $default  reduce using rule 25 (common_stmt)


State 38

   33 menuconfig_stmt: menuconfig_entry_start . config_option_list

    $default  reduce using rule 34 (config_option_list)

    config_option_list  go to state 76


State 39

   26 common_stmt: menuconfig_stmt .

    $default  reduce using rule 26 (common_stmt)


State 40

   53 choice_entry: choice . choice_option_list

    $default  reduce using rule 56 (choice_option_list)

    choice_option_list  go to state 77


State 41

   55 choice_stmt: choice_entry . choice_block choice_end

    $default  reduce using rule 66 (choice_block)

    choice_block  go to state 78


State 42

    7 stmt_list: stmt_list choice_stmt .

    $default  reduce using rule 7 (stmt_list)


State 43

   70 if_stmt: if_entry . if_block if_end

    $default  reduce using rule 71 (if_block)

    if_block  go to state 79


State 44

   23 common_stmt: if_stmt .

    $default  reduce using rule 23 (common_stmt)


State 45

   77 menu_entry: menu . visibility_list depends_list

    $default  reduce using rule 94 (visibility_list)

    visibility_list  go to state 80


State 46

   79 menu_stmt: menu_entry . menu_block menu_end

    $default  reduce using rule 80 (menu_block)

    menu_block  go to state 81


State 47

    8 stmt_list: stmt_list menu_stmt .

    $default  reduce using rule 8 (stmt_list)


State 48

   27 common_stmt: source_stmt .

    $default  reduce using rule 27 (common_stmt)


State 49

   86 comment_stmt: comment . depends_list

    $default  reduce using rule 89 (depends_list)

    depends_list  go to state 82


State 50

   24 common_stmt: comment_stmt .

    $default  reduce using rule 24 (common_stmt)


State 51

    9 stmt_list: stmt_list end .

    $default  reduce using rule 9 (stmt_list)


State 52

    3 start: mainmenu_stmt stmt_list .
    6 stmt_list: stmt_list . common_stmt
    7          | stmt_list . choice_stmt
    8          | stmt_list . menu_stmt
    9          | stmt_list . end
   10          | stmt_list . T_WORD error T_EOL
   11          | stmt_list . option_name error T_EOL
   12          | stmt_list . error T_EOL

    error         shift, and go to state 12
    T_MENU        shift, and go to state 13
    T_ENDMENU     shift, and go to state 14
    T_SOURCE      shift, and go to state 15
    T_CHOICE      shift, and go to state 16
    T_ENDCHOICE   shift, and go to state 17
    T_COMMENT     shift, and go to state 18
    T_CONFIG      shift, and go to state 19
    T_MENUCONFIG  shift, and go to state 20
    T_IF          shift, and go to state 21
    T_ENDIF       shift, and go to state 22
    T_DEPENDS     shift, and go to state 23
    T_OPTIONAL    shift, and go to state 24
    T_PROMPT      shift, and go to state 25
    T_TYPE        shift, and go to state 26
    T_DEFAULT     shift, and go to state 27
    T_SELECT      shift, and go to state 28
    T_IMPLY       shift, and go to state 29
    T_RANGE       shift, and go to state 30
    T_VISIBLE     shift, and go to state 31
    T_WORD        shift, and go to state 32
    T_EOL         shift, and go to state 33

    $end  reduce using rule 3 (start)

    option_name             go to state 34
    common_stmt             go to state 35
    config_entry_start      go to state 36
    config_stmt             go to state 37
    menuconfig_entry_start  go to state 38
    menuconfig_stmt         go to state 39
    choice                  go to state 40
    choice_entry            go to state 41
    choice_stmt             go to state 42
    if_entry                go to state 43
    if_stmt                 go to state 44
    menu                    go to state 45
    menu_entry              go to state 46
    menu_stmt               go to state 47
    source_stmt             go to state 48
    comment                 go to state 49
    comment_stmt            go to state 50
    end                     go to state 51


State 53

  106 nl: nl T_EOL .

    $default  reduce using rule 106 (nl)


State 54

    1 input: nl start .

    $default  reduce using rule 1 (input)


State 55

   75 mainmenu_stmt: T_MAINMENU prompt nl .
  106 nl: nl . T_EOL

    T_EOL  shift, and go to state 53

    T_EOL     [reduce using rule 75 (mainmenu_stmt)]
    $default  reduce using rule 75 (mainmenu_stmt)


State 56

   12 stmt_list: stmt_list error T_EOL .

    $default  reduce using rule 12 (stmt_list)


State 57

   76 menu: T_MENU prompt . T_EOL

    T_EOL  shift, and go to state 83


State 58

  102 end: T_ENDMENU T_EOL .

    $default  reduce using rule 102 (end)


State 59

   84 source_stmt: T_SOURCE prompt . T_EOL

    T_EOL  shift, and go to state 84


State 60

  123 word_opt: T_WORD .

    $default  reduce using rule 123 (word_opt)


State 61

   52 choice: T_CHOICE word_opt . T_EOL

    T_EOL  shift, and go to state 85


State 62

  103 end: T_ENDCHOICE T_EOL .

    $default  reduce using rule 103 (end)


State 63

   85 comment: T_COMMENT prompt . T_EOL

    T_EOL  shift, and go to state 86


State 64

   30 config_entry_start: T_CONFIG T_WORD . T_EOL

    T_EOL  shift, and go to state 87


State 65

   32 menuconfig_entry_start: T_MENUCONFIG T_WORD . T_EOL

    T_EOL  shift, and go to state 88


State 66

  120 symbol: T_WORD .

    $default  reduce using rule 120 (symbol)


State 67

  121 symbol: T_WORD_QUOTE .

    $default  reduce using rule 121 (symbol)


State 68

  116 expr: T_OPEN_PAREN . expr T_CLOSE_PAREN

    T_WORD        shift, and go to state 66
    T_WORD_QUOTE  shift, and go to state 67
    T_OPEN_PAREN  shift, and go to state 68
    T_NOT         shift, and go to state 69

    expr    go to state 89
    symbol  go to state 71


State 69

  117 expr: T_NOT . expr

    T_WORD        shift, and go to state 66
    T_WORD_QUOTE  shift, and go to state 67
    T_OPEN_PAREN  shift, and go to state 68
    T_NOT         shift, and go to state 69

    expr    go to state 90
    symbol  go to state 71


State 70

   68 if_entry: T_IF expr . nl
  118 expr: expr . T_OR expr
  119     | expr . T_AND expr

    T_EOL  shift, and go to state 2
    T_OR   shift, and go to state 91
    T_AND  shift, and go to state 92

    nl  go to state 93


State 71

  109 expr: symbol .
  110     | symbol . T_LESS symbol
  111     | symbol . T_LESS_EQUAL symbol
  112     | symbol . T_GREATER symbol
  113     | symbol . T_GREATER_EQUAL symbol
  114     | symbol . T_EQUAL symbol
  115     | symbol . T_UNEQUAL symbol

    T_UNEQUAL        shift, and go to state 94
    T_LESS           shift, and go to state 95
    T_LESS_EQUAL     shift, and go to state 96
    T_GREATER        shift, and go to state 97
    T_GREATER_EQUAL  shift, and go to state 98
    T_EQUAL          shift, and go to state 99

    $default  reduce using rule 109 (expr)


State 72

  104 end: T_ENDIF T_EOL .

    $default  reduce using rule 104 (end)


State 73

   10 stmt_list: stmt_list T_WORD error . T_EOL

    T_EOL  shift, and go to state 100


State 74

   11 stmt_list: stmt_list option_name error . T_EOL

    T_EOL  shift, and go to state 101


State 75

   31 config_stmt: config_entry_start config_option_list .
   35 config_option_list: config_option_list . config_option
   36                   | config_option_list . symbol_option
   37                   | config_option_list . depends
   38                   | config_option_list . help
   39                   | config_option_list . option_error
   40                   | config_option_list . T_EOL

    error      shift, and go to state 102
    T_HELP     shift, and go to state 103
    T_DEPENDS  shift, and go to state 104
    T_PROMPT   shift, and go to state 105
    T_TYPE     shift, and go to state 106
    T_DEFAULT  shift, and go to state 107
    T_SELECT   shift, and go to state 108
    T_IMPLY    shift, and go to state 109
    T_RANGE    shift, and go to state 110
    T_OPTION   shift, and go to state 111
    T_WORD     shift, and go to state 112
    T_EOL      shift, and go to state 113

    $end          reduce using rule 31 (config_stmt)
    error         [reduce using rule 31 (config_stmt)]
    T_MENU        reduce using rule 31 (config_stmt)
    T_ENDMENU     reduce using rule 31 (config_stmt)
    T_SOURCE      reduce using rule 31 (config_stmt)
    T_CHOICE      reduce using rule 31 (config_stmt)
    T_ENDCHOICE   reduce using rule 31 (config_stmt)
    T_COMMENT     reduce using rule 31 (config_stmt)
    T_CONFIG      reduce using rule 31 (config_stmt)
    T_MENUCONFIG  reduce using rule 31 (config_stmt)
    T_IF          reduce using rule 31 (config_stmt)
    T_ENDIF       reduce using rule 31 (config_stmt)
    T_DEPENDS     [reduce using rule 31 (config_stmt)]
    T_OPTIONAL    reduce using rule 31 (config_stmt)
    T_PROMPT      [reduce using rule 31 (config_stmt)]
    T_TYPE        [reduce using rule 31 (config_stmt)]
    T_DEFAULT     [reduce using rule 31 (config_stmt)]
    T_SELECT      [reduce using rule 31 (config_stmt)]
    T_IMPLY       [reduce using rule 31 (config_stmt)]
    T_RANGE       [reduce using rule 31 (config_stmt)]
    T_VISIBLE     reduce using rule 31 (config_stmt)
    T_WORD        [reduce using rule 31 (config_stmt)]
    T_EOL         [reduce using rule 31 (config_stmt)]

    option_error   go to state 114
    config_option  go to state 115
    symbol_option  go to state 116
    help_start     go to state 117
    help           go to state 118
    depends        go to state 119


State 76

   33 menuconfig_stmt: menuconfig_entry_start config_option_list .
   35 config_option_list: config_option_list . config_option
   36                   | config_option_list . symbol_option
   37                   | config_option_list . depends
   38                   | config_option_list . help
   39                   | config_option_list . option_error
   40                   | config_option_list . T_EOL

    error      shift, and go to state 102
    T_HELP     shift, and go to state 103
    T_DEPENDS  shift, and go to state 104
    T_PROMPT   shift, and go to state 105
    T_TYPE     shift, and go to state 106
    T_DEFAULT  shift, and go to state 107
    T_SELECT   shift, and go to state 108
    T_IMPLY    shift, and go to state 109
    T_RANGE    shift, and go to state 110
    T_OPTION   shift, and go to state 111
    T_WORD     shift, and go to state 112
    T_EOL      shift, and go to state 113

    $end          reduce using rule 33 (menuconfig_stmt)
    error         [reduce using rule 33 (menuconfig_stmt)]
    T_MENU        reduce using rule 33 (menuconfig_stmt)
    T_ENDMENU     reduce using rule 33 (menuconfig_stmt)
    T_SOURCE      reduce using rule 33 (menuconfig_stmt)
    T_CHOICE      reduce using rule 33 (menuconfig_stmt)
    T_ENDCHOICE   reduce using rule 33 (menuconfig_stmt)
    T_COMMENT     reduce using rule 33 (menuconfig_stmt)
    T_CONFIG      reduce using rule 33 (menuconfig_stmt)
    T_MENUCONFIG  reduce using rule 33 (menuconfig_stmt)
    T_IF          reduce using rule 33 (menuconfig_stmt)
    T_ENDIF       reduce using rule 33 (menuconfig_stmt)
    T_DEPENDS     [reduce using rule 33 (menuconfig_stmt)]
    T_OPTIONAL    reduce using rule 33 (menuconfig_stmt)
    T_PROMPT      [reduce using rule 33 (menuconfig_stmt)]
    T_TYPE        [reduce using rule 33 (menuconfig_stmt)]
    T_DEFAULT     [reduce using rule 33 (menuconfig_stmt)]
    T_SELECT      [reduce using rule 33 (menuconfig_stmt)]
    T_IMPLY       [reduce using rule 33 (menuconfig_stmt)]
    T_RANGE       [reduce using rule 33 (menuconfig_stmt)]
    T_VISIBLE     reduce using rule 33 (menuconfig_stmt)
    T_WORD        [reduce using rule 33 (menuconfig_stmt)]
    T_EOL         [reduce using rule 33 (menuconfig_stmt)]

    option_error   go to state 114
    config_option  go to state 115
    symbol_option  go to state 116
    help_start     go to state 117
    help           go to state 118
    depends        go to state 119


State 77

   53 choice_entry: choice choice_option_list .
   57 choice_option_list: choice_option_list . choice_option
   58                   | choice_option_list . depends
   59                   | choice_option_list . help
   60                   | choice_option_list . T_EOL
   61                   | choice_option_list . option_error

    error       shift, and go to state 102
    T_HELP      shift, and go to state 103
    T_DEPENDS   shift, and go to state 104
    T_OPTIONAL  shift, and go to state 120
    T_PROMPT    shift, and go to state 121
    T_TYPE      shift, and go to state 122
    T_DEFAULT   shift, and go to state 123
    T_WORD      shift, and go to state 112
    T_EOL       shift, and go to state 124

    T_ENDMENU     reduce using rule 53 (choice_entry)
    T_SOURCE      reduce using rule 53 (choice_entry)
    T_ENDCHOICE   reduce using rule 53 (choice_entry)
    T_COMMENT     reduce using rule 53 (choice_entry)
    T_CONFIG      reduce using rule 53 (choice_entry)
    T_MENUCONFIG  reduce using rule 53 (choice_entry)
    T_IF          reduce using rule 53 (choice_entry)
    T_ENDIF       reduce using rule 53 (choice_entry)
    T_EOL         [reduce using rule 53 (choice_entry)]

    option_error   go to state 125
    choice_option  go to state 126
    help_start     go to state 117
    help           go to state 127
    depends        go to state 128


State 78

   55 choice_stmt: choice_entry choice_block . choice_end
   67 choice_block: choice_block . common_stmt

    T_ENDMENU     shift, and go to state 14
    T_SOURCE      shift, and go to state 15
    T_ENDCHOICE   shift, and go to state 17
    T_COMMENT     shift, and go to state 18
    T_CONFIG      shift, and go to state 19
    T_MENUCONFIG  shift, and go to state 20
    T_IF          shift, and go to state 21
    T_ENDIF       shift, and go to state 22
    T_EOL         shift, and go to state 33

    common_stmt             go to state 129
    config_entry_start      go to state 36
    config_stmt             go to state 37
    menuconfig_entry_start  go to state 38
    menuconfig_stmt         go to state 39
    choice_end              go to state 130
    if_entry                go to state 43
    if_stmt                 go to state 44
    source_stmt             go to state 48
    comment                 go to state 49
    comment_stmt            go to state 50
    end                     go to state 131


State 79

   70 if_stmt: if_entry if_block . if_end
   72 if_block: if_block . common_stmt
   73         | if_block . menu_stmt
   74         | if_block . choice_stmt

    T_MENU        shift, and go to state 13
    T_ENDMENU     shift, and go to state 14
    T_SOURCE      shift, and go to state 15
    T_CHOICE      shift, and go to state 16
    T_ENDCHOICE   shift, and go to state 17
    T_COMMENT     shift, and go to state 18
    T_CONFIG      shift, and go to state 19
    T_MENUCONFIG  shift, and go to state 20
    T_IF          shift, and go to state 21
    T_ENDIF       shift, and go to state 22
    T_EOL         shift, and go to state 33

    common_stmt             go to state 132
    config_entry_start      go to state 36
    config_stmt             go to state 37
    menuconfig_entry_start  go to state 38
    menuconfig_stmt         go to state 39
    choice                  go to state 40
    choice_entry            go to state 41
    choice_stmt             go to state 133
    if_entry                go to state 43
    if_end                  go to state 134
    if_stmt                 go to state 44
    menu                    go to state 45
    menu_entry              go to state 46
    menu_stmt               go to state 135
    source_stmt             go to state 48
    comment                 go to state 49
    comment_stmt            go to state 50
    end                     go to state 136


State 80

   77 menu_entry: menu visibility_list . depends_list
   95 visibility_list: visibility_list . visible
   96                | visibility_list . T_EOL

    T_VISIBLE  shift, and go to state 137
    T_EOL      shift, and go to state 138

    T_EOL     [reduce using rule 89 (depends_list)]
    $default  reduce using rule 89 (depends_list)

    depends_list  go to state 139
    visible       go to state 140


State 81

   79 menu_stmt: menu_entry menu_block . menu_end
   81 menu_block: menu_block . common_stmt
   82           | menu_block . menu_stmt
   83           | menu_block . choice_stmt

    T_MENU        shift, and go to state 13
    T_ENDMENU     shift, and go to state 14
    T_SOURCE      shift, and go to state 15
    T_CHOICE      shift, and go to state 16
    T_ENDCHOICE   shift, and go to state 17
    T_COMMENT     shift, and go to state 18
    T_CONFIG      shift, and go to state 19
    T_MENUCONFIG  shift, and go to state 20
    T_IF          shift, and go to state 21
    T_ENDIF       shift, and go to state 22
    T_EOL         shift, and go to state 33

    common_stmt             go to state 141
    config_entry_start      go to state 36
    config_stmt             go to state 37
    menuconfig_entry_start  go to state 38
    menuconfig_stmt         go to state 39
    choice                  go to state 40
    choice_entry            go to state 41
    choice_stmt             go to state 142
    if_entry                go to state 43
    if_stmt                 go to state 44
    menu                    go to state 45
    menu_entry              go to state 46
    menu_end                go to state 143
    menu_stmt               go to state 144
    source_stmt             go to state 48
    comment                 go to state 49
    comment_stmt            go to state 50
    end                     go to state 145


State 82

   86 comment_stmt: comment depends_list .
   90 depends_list: depends_list . depends
   91             | depends_list . T_EOL
   92             | depends_list . option_error

    error      shift, and go to state 102
    T_DEPENDS  shift, and go to state 104
    T_WORD     shift, and go to state 112
    T_EOL      shift, and go to state 146

    $end          reduce using rule 86 (comment_stmt)
    error         [reduce using rule 86 (comment_stmt)]
    T_MENU        reduce using rule 86 (comment_stmt)
    T_ENDMENU     reduce using rule 86 (comment_stmt)
    T_SOURCE      reduce using rule 86 (comment_stmt)
    T_CHOICE      reduce using rule 86 (comment_stmt)
    T_ENDCHOICE   reduce using rule 86 (comment_stmt)
    T_COMMENT     reduce using rule 86 (comment_stmt)
    T_CONFIG      reduce using rule 86 (comment_stmt)
    T_MENUCONFIG  reduce using rule 86 (comment_stmt)
    T_IF          reduce using rule 86 (comment_stmt)
    T_ENDIF       reduce using rule 86 (comment_stmt)
    T_DEPENDS     [reduce using rule 86 (comment_stmt)]
    T_OPTIONAL    reduce using rule 86 (comment_stmt)
    T_PROMPT      reduce using rule 86 (comment_stmt)
    T_TYPE        reduce using rule 86 (comment_stmt)
    T_DEFAULT     reduce using rule 86 (comment_stmt)
    T_SELECT      reduce using rule 86 (comment_stmt)
    T_IMPLY       reduce using rule 86 (comment_stmt)
    T_RANGE       reduce using rule 86 (comment_stmt)
    T_VISIBLE     reduce using rule 86 (comment_stmt)
    T_WORD        [reduce using rule 86 (comment_stmt)]
    T_EOL         [reduce using rule 86 (comment_stmt)]

    option_error  go to state 147
    depends       go to state 148


State 83

   76 menu: T_MENU prompt T_EOL .

    $default  reduce using rule 76 (menu)


State 84

   84 source_stmt: T_SOURCE prompt T_EOL .

    $default  reduce using rule 84 (source_stmt)


State 85

   52 choice: T_CHOICE word_opt T_EOL .

    $default  reduce using rule 52 (choice)


State 86

   85 comment: T_COMMENT prompt T_EOL .

    $default  reduce using rule 85 (comment)


State 87

   30 config_entry_start: T_CONFIG T_WORD T_EOL .

    $default  reduce using rule 30 (config_entry_start)


State 88

   32 menuconfig_entry_start: T_MENUCONFIG T_WORD T_EOL .

    $default  reduce using rule 32 (menuconfig_entry_start)


State 89

  116 expr: T_OPEN_PAREN expr . T_CLOSE_PAREN
  118     | expr . T_OR expr
  119     | expr . T_AND expr

    T_CLOSE_PAREN  shift, and go to state 149
    T_OR           shift, and go to state 91
    T_AND          shift, and go to state 92


State 90

  117 expr: T_NOT expr .
  118     | expr . T_OR expr
  119     | expr . T_AND expr

    $default  reduce using rule 117 (expr)


State 91

  118 expr: expr T_OR . expr

    T_WORD        shift, and go to state 66
    T_WORD_QUOTE  shift, and go to state 67
    T_OPEN_PAREN  shift, and go to state 68
    T_NOT         shift, and go to state 69

    expr    go to state 150
    symbol  go to state 71


State 92

  119 expr: expr T_AND . expr

    T_WORD        shift, and go to state 66
    T_WORD_QUOTE  shift, and go to state 67
    T_OPEN_PAREN  shift, and go to state 68
    T_NOT         shift, and go to state 69

    expr    go to state 151
    symbol  go to state 71


State 93

   68 if_entry: T_IF expr nl .
  106 nl: nl . T_EOL

    T_EOL  shift, and go to state 53

    T_EOL     [reduce using rule 68 (if_entry)]
    $default  reduce using rule 68 (if_entry)


State 94

  115 expr: symbol T_UNEQUAL . symbol

    T_WORD        shift, and go to state 66
    T_WORD_QUOTE  shift, and go to state 67

    symbol  go to state 152


State 95

  110 expr: symbol T_LESS . symbol

    T_WORD        shift, and go to state 66
    T_WORD_QUOTE  shift, and go to state 67

    symbol  go to state 153


State 96

  111 expr: symbol T_LESS_EQUAL . symbol

    T_WORD        shift, and go to state 66
    T_WORD_QUOTE  shift, and go to state 67

    symbol  go to state 154


State 97

  112 expr: symbol T_GREATER . symbol

    T_WORD        shift, and go to state 66
    T_WORD_QUOTE  shift, and go to state 67

    symbol  go to state 155


State 98

  113 expr: symbol T_GREATER_EQUAL . symbol

    T_WORD        shift, and go to state 66
    T_WORD_QUOTE  shift, and go to state 67

    symbol  go to state 156


State 99

  114 expr: symbol T_EQUAL . symbol

    T_WORD        shift, and go to state 66
    T_WORD_QUOTE  shift, and go to state 67

    symbol  go to state 157


State 100

   10 stmt_list: stmt_list T_WORD error T_EOL .

    $default  reduce using rule 10 (stmt_list)


State 101

   11 stmt_list: stmt_list option_name error T_EOL .

    $default  reduce using rule 11 (stmt_list)


State 102

   29 option_error: error . T_EOL

    T_EOL  shift, and go to state 158


State 103

   87 help_start: T_HELP . T_EOL

    T_EOL  shift, and go to state 159


State 104

   93 depends: T_DEPENDS . T_ON expr T_EOL

    T_ON  shift, and go to state 160


State 105

   42 config_option: T_PROMPT . prompt if_expr T_EOL

    T_WORD        shift, and go to state 8
    T_WORD_QUOTE  shift, and go to state 9

    prompt  go to state 161


State 106

   41 config_option: T_TYPE . prompt_stmt_opt T_EOL

    T_WORD        shift, and go to state 8
    T_WORD_QUOTE  shift, and go to state 9

    $default  reduce using rule 98 (prompt_stmt_opt)

    prompt_stmt_opt  go to state 162
    prompt           go to state 163


State 107

   43 config_option: T_DEFAULT . expr if_expr T_EOL

    T_WORD        shift, and go to state 66
    T_WORD_QUOTE  shift, and go to state 67
    T_OPEN_PAREN  shift, and go to state 68
    T_NOT         shift, and go to state 69

    expr    go to state 164
    symbol  go to state 71


State 108

   44 config_option: T_SELECT . T_WORD if_expr T_EOL

    T_WORD  shift, and go to state 165


State 109

   45 config_option: T_IMPLY . T_WORD if_expr T_EOL

    T_WORD  shift, and go to state 166


State 110

   46 config_option: T_RANGE . symbol symbol if_expr T_EOL

    T_WORD        shift, and go to state 66
    T_WORD_QUOTE  shift, and go to state 67

    symbol  go to state 167


State 111

   47 symbol_option: T_OPTION . symbol_option_list T_EOL

    $default  reduce using rule 48 (symbol_option_list)

    symbol_option_list  go to state 168


State 112

   28 option_error: T_WORD . error T_EOL

    error  shift, and go to state 169


State 113

   40 config_option_list: config_option_list T_EOL .

    $default  reduce using rule 40 (config_option_list)


State 114

   39 config_option_list: config_option_list option_error .

    $default  reduce using rule 39 (config_option_list)


State 115

   35 config_option_list: config_option_list config_option .

    $default  reduce using rule 35 (config_option_list)


State 116

   36 config_option_list: config_option_list symbol_option .

    $default  reduce using rule 36 (config_option_list)


State 117

   88 help: help_start . T_HELPTEXT

    T_HELPTEXT  shift, and go to state 170


State 118

   38 config_option_list: config_option_list help .

    $default  reduce using rule 38 (config_option_list)


State 119

   37 config_option_list: config_option_list depends .

    $default  reduce using rule 37 (config_option_list)


State 120

   64 choice_option: T_OPTIONAL . T_EOL

    T_EOL  shift, and go to state 171


State 121

   62 choice_option: T_PROMPT . prompt if_expr T_EOL

    T_WORD        shift, and go to state 8
    T_WORD_QUOTE  shift, and go to state 9

    prompt  go to state 172


State 122

   63 choice_option: T_TYPE . prompt_stmt_opt T_EOL

    T_WORD        shift, and go to state 8
    T_WORD_QUOTE  shift, and go to state 9

    $default  reduce using rule 98 (prompt_stmt_opt)

    prompt_stmt_opt  go to state 173
    prompt           go to state 163


State 123

   65 choice_option: T_DEFAULT . T_WORD if_expr T_EOL

    T_WORD  shift, and go to state 174


State 124

   60 choice_option_list: choice_option_list T_EOL .

    $default  reduce using rule 60 (choice_option_list)


State 125

   61 choice_option_list: choice_option_list option_error .

    $default  reduce using rule 61 (choice_option_list)


State 126

   57 choice_option_list: choice_option_list choice_option .

    $default  reduce using rule 57 (choice_option_list)


State 127

   59 choice_option_list: choice_option_list help .

    $default  reduce using rule 59 (choice_option_list)


State 128

   58 choice_option_list: choice_option_list depends .

    $default  reduce using rule 58 (choice_option_list)


State 129

   67 choice_block: choice_block common_stmt .

    $default  reduce using rule 67 (choice_block)


State 130

   55 choice_stmt: choice_entry choice_block choice_end .

    $default  reduce using rule 55 (choice_stmt)


State 131

   54 choice_end: end .

    $default  reduce using rule 54 (choice_end)


State 132

   72 if_block: if_block common_stmt .

    $default  reduce using rule 72 (if_block)


State 133

   74 if_block: if_block choice_stmt .

    $default  reduce using rule 74 (if_block)


State 134

   70 if_stmt: if_entry if_block if_end .

    $default  reduce using rule 70 (if_stmt)


State 135

   73 if_block: if_block menu_stmt .

    $default  reduce using rule 73 (if_block)


State 136

   69 if_end: end .

    $default  reduce using rule 69 (if_end)


State 137

   97 visible: T_VISIBLE . if_expr

    T_IF  shift, and go to state 175

    T_IF      [reduce using rule 107 (if_expr)]
    $default  reduce using rule 107 (if_expr)

    if_expr  go to state 176


State 138

   96 visibility_list: visibility_list T_EOL .

    $default  reduce using rule 96 (visibility_list)


State 139

   77 menu_entry: menu visibility_list depends_list .
   90 depends_list: depends_list . depends
   91             | depends_list . T_EOL
   92             | depends_list . option_error

    error      shift, and go to state 102
    T_DEPENDS  shift, and go to state 104
    T_WORD     shift, and go to state 112
    T_EOL      shift, and go to state 146

    T_MENU        reduce using rule 77 (menu_entry)
    T_ENDMENU     reduce using rule 77 (menu_entry)
    T_SOURCE      reduce using rule 77 (menu_entry)
    T_CHOICE      reduce using rule 77 (menu_entry)
    T_ENDCHOICE   reduce using rule 77 (menu_entry)
    T_COMMENT     reduce using rule 77 (menu_entry)
    T_CONFIG      reduce using rule 77 (menu_entry)
    T_MENUCONFIG  reduce using rule 77 (menu_entry)
    T_IF          reduce using rule 77 (menu_entry)
    T_ENDIF       reduce using rule 77 (menu_entry)
    T_EOL         [reduce using rule 77 (menu_entry)]

    option_error  go to state 147
    depends       go to state 148


State 140

   95 visibility_list: visibility_list visible .

    $default  reduce using rule 95 (visibility_list)


State 141

   81 menu_block: menu_block common_stmt .

    $default  reduce using rule 81 (menu_block)


State 142

   83 menu_block: menu_block choice_stmt .

    $default  reduce using rule 83 (menu_block)


State 143

   79 menu_stmt: menu_entry menu_block menu_end .

    $default  reduce using rule 79 (menu_stmt)


State 144

   82 menu_block: menu_block menu_stmt .

    $default  reduce using rule 82 (menu_block)


State 145

   78 menu_end: end .

    $default  reduce using rule 78 (menu_end)


State 146

   91 depends_list: depends_list T_EOL .

    $default  reduce using rule 91 (depends_list)


State 147

   92 depends_list: depends_list option_error .

    $default  reduce using rule 92 (depends_list)


State 148

   90 depends_list: depends_list depends .

    $default  reduce using rule 90 (depends_list)


State 149

  116 expr: T_OPEN_PAREN expr T_CLOSE_PAREN .

    $default  reduce using rule 116 (expr)


State 150

  118 expr: expr . T_OR expr
  118     | expr T_OR expr .
  119     | expr . T_AND expr

    T_AND  shift, and go to state 92

    $default  reduce using rule 118 (expr)


State 151

  118 expr: expr . T_OR expr
  119     | expr . T_AND expr
  119     | expr T_AND expr .

    $default  reduce using rule 119 (expr)


State 152

  115 expr: symbol T_UNEQUAL symbol .

    $default  reduce using rule 115 (expr)


State 153

  110 expr: symbol T_LESS symbol .

    $default  reduce using rule 110 (expr)


State 154

  111 expr: symbol T_LESS_EQUAL symbol .

    $default  reduce using rule 111 (expr)


State 155

  112 expr: symbol T_GREATER symbol .

    $default  reduce using rule 112 (expr)


State 156

  113 expr: symbol T_GREATER_EQUAL symbol .

    $default  reduce using rule 113 (expr)


State 157

  114 expr: symbol T_EQUAL symbol .

    $default  reduce using rule 114 (expr)


State 158

   29 option_error: error T_EOL .

    $default  reduce using rule 29 (option_error)


State 159

   87 help_start: T_HELP T_EOL .

    $default  reduce using rule 87 (help_start)


State 160

   93 depends: T_DEPENDS T_ON . expr T_EOL

    T_WORD        shift, and go to state 66
    T_WORD_QUOTE  shift, and go to state 67
    T_OPEN_PAREN  shift, and go to state 68
    T_NOT         shift, and go to state 69

    expr    go to state 177
    symbol  go to state 71


State 161

   42 config_option: T_PROMPT prompt . if_expr T_EOL

    T_IF  shift, and go to state 175

    $default  reduce using rule 107 (if_expr)

    if_expr  go to state 178


State 162

   41 config_option: T_TYPE prompt_stmt_opt . T_EOL

    T_EOL  shift, and go to state 179


State 163

   99 prompt_stmt_opt: prompt . if_expr

    T_IF  shift, and go to state 175

    $default  reduce using rule 107 (if_expr)

    if_expr  go to state 180


State 164

   43 config_option: T_DEFAULT expr . if_expr T_EOL
  118 expr: expr . T_OR expr
  119     | expr . T_AND expr

    T_IF   shift, and go to state 175
    T_OR   shift, and go to state 91
    T_AND  shift, and go to state 92

    $default  reduce using rule 107 (if_expr)

    if_expr  go to state 181


State 165

   44 config_option: T_SELECT T_WORD . if_expr T_EOL

    T_IF  shift, and go to state 175

    $default  reduce using rule 107 (if_expr)

    if_expr  go to state 182


State 166

   45 config_option: T_IMPLY T_WORD . if_expr T_EOL

    T_IF  shift, and go to state 175

    $default  reduce using rule 107 (if_expr)

    if_expr  go to state 183


State 167

   46 config_option: T_RANGE symbol . symbol if_expr T_EOL

    T_WORD        shift, and go to state 66
    T_WORD_QUOTE  shift, and go to state 67

    symbol  go to state 184


State 168

   47 symbol_option: T_OPTION symbol_option_list . T_EOL
   49 symbol_option_list: symbol_option_list . T_WORD symbol_option_arg

    T_WORD  shift, and go to state 185
    T_EOL   shift, and go to state 186


State 169

   28 option_error: T_WORD error . T_EOL

    T_EOL  shift, and go to state 187


State 170

   88 help: help_start T_HELPTEXT .

    $default  reduce using rule 88 (help)


State 171

   64 choice_option: T_OPTIONAL T_EOL .

    $default  reduce using rule 64 (choice_option)


State 172

   62 choice_option: T_PROMPT prompt . if_expr T_EOL

    T_IF  shift, and go to state 175

    $default  reduce using rule 107 (if_expr)

    if_expr  go to state 188


State 173

   63 choice_option: T_TYPE prompt_stmt_opt . T_EOL

    T_EOL  shift, and go to state 189


State 174

   65 choice_option: T_DEFAULT T_WORD . if_expr T_EOL

    T_IF  shift, and go to state 175

    $default  reduce using rule 107 (if_expr)

    if_expr  go to state 190


State 175

  108 if_expr: T_IF . expr

    T_WORD        shift, and go to state 66
    T_WORD_QUOTE  shift, and go to state 67
    T_OPEN_PAREN  shift, and go to state 68
    T_NOT         shift, and go to state 69

    expr    go to state 191
    symbol  go to state 71


State 176

   97 visible: T_VISIBLE if_expr .

    $default  reduce using rule 97 (visible)


State 177

   93 depends: T_DEPENDS T_ON expr . T_EOL
  118 expr: expr . T_OR expr
  119     | expr . T_AND expr

    T_EOL  shift, and go to state 192
    T_OR   shift, and go to state 91
    T_AND  shift, and go to state 92


State 178

   42 config_option: T_PROMPT prompt if_expr . T_EOL

    T_EOL  shift, and go to state 193


State 179

   41 config_option: T_TYPE prompt_stmt_opt T_EOL .

    $default  reduce using rule 41 (config_option)


State 180

   99 prompt_stmt_opt: prompt if_expr .

    $default  reduce using rule 99 (prompt_stmt_opt)


State 181

   43 config_option: T_DEFAULT expr if_expr . T_EOL

    T_EOL  shift, and go to state 194


State 182

   44 config_option: T_SELECT T_WORD if_expr . T_EOL

    T_EOL  shift, and go to state 195


State 183

   45 config_option: T_IMPLY T_WORD if_expr . T_EOL

    T_EOL  shift, and go to state 196


State 184

   46 config_option: T_RANGE symbol symbol . if_expr T_EOL

    T_IF  shift, and go to state 175

    $default  reduce using rule 107 (if_expr)

    if_expr  go to state 197


State 185

   49 symbol_option_list: symbol_option_list T_WORD . symbol_option_arg

    T_EQUAL  shift, and go to state 198

    $default  reduce using rule 50 (symbol_option_arg)

    symbol_option_arg  go to state 199


State 186

   47 symbol_option: T_OPTION symbol_option_list T_EOL .

    $default  reduce using rule 47 (symbol_option)


State 187

   28 option_error: T_WORD error T_EOL .

    $default  reduce using rule 28 (option_error)


State 188

   62 choice_option: T_PROMPT prompt if_expr . T_EOL

    T_EOL  shift, and go to state 200


State 189

   63 choice_option: T_TYPE prompt_stmt_opt T_EOL .

    $default  reduce using rule 63 (choice_option)


State 190

   65 choice_option: T_DEFAULT T_WORD if_expr . T_EOL

    T_EOL  shift, and go to state 201


State 191

  108 if_expr: T_IF expr .
  118 expr: expr . T_OR expr
  119     | expr . T_AND expr

    T_OR   shift, and go to state 91
    T_AND  shift, and go to state 92

    $default  reduce using rule 108 (if_expr)


State 192

   93 depends: T_DEPENDS T_ON expr T_EOL .

    $default  reduce using rule 93 (depends)


State 193

   42 config_option: T_PROMPT prompt if_expr T_EOL .

    $default  reduce using rule 42 (config_option)


State 194

   43 config_option: T_DEFAULT expr if_expr T_EOL .

    $default  reduce using rule 43 (config_option)


State 195

   44 config_option: T_SELECT T_WORD if_expr T_EOL .

    $default  reduce using rule 44 (config_option)


State 196

   45 config_option: T_IMPLY T_WORD if_expr T_EOL .

    $default  reduce using rule 45 (config_option)


State 197

   46 config_option: T_RANGE symbol symbol if_expr . T_EOL

    T_EOL  shift, and go to state 202


State 198

   51 symbol_option_arg: T_EQUAL . prompt

    T_WORD        shift, and go to state 8
    T_WORD_QUOTE  shift, and go to state 9

    prompt  go to state 203


State 199

   49 symbol_option_list: symbol_option_list T_WORD symbol_option_arg .

    $default  reduce using rule 49 (symbol_option_list)


State 200

   62 choice_option: T_PROMPT prompt if_expr T_EOL .

    $default  reduce using rule 62 (choice_option)


State 201

   65 choice_option: T_DEFAULT T_WORD if_expr T_EOL .

    $default  reduce using rule 65 (choice_option)


State 202

   46 config_option: T_RANGE symbol symbol if_expr T_EOL .

    $default  reduce using rule 46 (config_option)


State 203

   51 symbol_option_arg: T_EQUAL prompt .

    $default  reduce using rule 51 (symbol_option_arg)
